{
  "Abingdon": {
    "aqi": 4,
    "coordinates": [-1.28278, 51.67109],
    "population_density": 1788
  },
  "Arnold": {
    "aqi": 1,
    "coordinates": [-1.138056, 52.995556],
    "population_density": 1788
  },
  "Aston": {
    "aqi": 19,
    "coordinates": [-1.88333, 52.5],
    "population_density": 1788
  },
  "Aylesford": {
    "aqi": 5,
    "coordinates": [0.491234, 51.287754],
    "population_density": 1788
  },
  "Bamford": {
    "aqi": 22,
    "coordinates": [-1.752006, 53.40337],
    "population_density": 1788
  },
  "Barking": {
    "aqi": 10,
    "coordinates": [0.132857, 51.529389],
    "population_density": 5871
  },
  "Barnsbury": {
    "aqi": 53,
    "coordinates": [-0.129594, 51.533238],
    "population_density": 1788
  },
  "Barnsley": {
    "aqi": 1,
    "coordinates": [-1.452162, 53.546344],
    "population_density": 745
  },
  "Barnstaple": {
    "aqi": 5,
    "coordinates": [-4.041924, 51.074793],
    "population_density": 1788
  },
  "Basford": {
    "aqi": 2,
    "coordinates": [-1.18333, 52.96667],
    "population_density": 1788
  },
  "Battersea": {
    "aqi": 11,
    "coordinates": [-0.166713485994806, 51.4636903568111],
    "population_density": 1788
  },
  "Bayswater": {
    "aqi": 11,
    "coordinates": [-0.217718908639377, 51.5324054617809],
    "population_density": 1788
  },
  "Beaconsfield": {
    "aqi": 67,
    "coordinates": [-0.645327, 51.61882],
    "population_density": 1788
  },
  "Bedford": {
    "aqi": 6,
    "coordinates": [-0.46663, 52.138153],
    "population_density": 360
  },
  "Belvedere": {
    "aqi": 7,
    "coordinates": [0.158914493927518, 51.4906102082147],
    "population_density": 1788
  },
  "Bexhill": {
    "aqi": 2,
    "coordinates": [0.49292, 50.845402],
    "population_density": 1788
  },
  "Bexley": {
    "aqi": 37,
    "coordinates": [0.085606, 51.4563],
    "population_density": 4082
  },
  "Birchington-on-Sea": {
    "aqi": 13,
    "coordinates": [1.3075, 51.373889],
    "population_density": 1788
  },
  "Birkenhead": {
    "aqi": 20,
    "coordinates": [-3.022722, 53.37287],
    "population_density": 1788
  },
  "Birmingham": {
    "aqi": 27,
    "coordinates": [-1.829999, 52.437165],
    "population_density": 4262
  },
  "Blackheath": {
    "aqi": 8,
    "coordinates": [0.0079, 51.4647],
    "population_density": 1788
  },
  "Blackpool": {
    "aqi": 9,
    "coordinates": [-3.007175, 53.80489],
    "population_density": 3997
  },
  "Borehamwood": {
    "aqi": 71,
    "coordinates": [-0.261916, 51.659803],
    "population_density": 1788
  },
  "Bournemouth": {
    "aqi": 33,
    "coordinates": [-1.826744, 50.73957],
    "population_density": 2453
  },
  "Bovey Tracey": {
    "aqi": 1,
    "coordinates": [-3.71651, 50.5976],
    "population_density": 1788
  },
  "Bradford-on-Avon": {
    "aqi": 57,
    "coordinates": [-2.252262, 51.348788],
    "population_density": 1466
  },
  "Brentford": {
    "aqi": 5,
    "coordinates": [-0.310081, 51.489398],
    "population_density": 7652
  },
  "Brighton": {
    "aqi": 4,
    "coordinates": [-0.147574894627678, 50.8407255326205],
    "population_density": 3508
  },
  "Brinscall": {
    "aqi": 3,
    "coordinates": [-2.569743, 53.69084],
    "population_density": 1788
  },
  "Bristol": {
    "aqi": 71,
    "coordinates": [-2.584482, 51.462839],
    "population_density": 4224
  },
  "Burngreave": {
    "aqi": 25,
    "coordinates": [-1.45789, 53.39302],
    "population_density": 1788
  },
  "Burton upon Trent": {
    "aqi": 1,
    "coordinates": [-1.64263, 52.80728],
    "population_density": 1788
  },
  "Burwell": {
    "aqi": 7,
    "coordinates": [0.290917, 52.2985],
    "population_density": 1788
  },
  "Camberley": {
    "aqi": 8,
    "coordinates": [-0.735167, 51.335278],
    "population_density": 1788
  },
  "Cambridge": {
    "aqi": 63,
    "coordinates": [0.115229, 52.2335],
    "population_density": 137
  },
  "Canary Wharf": {
    "aqi": 41,
    "coordinates": [-0.02085, 51.50519],
    "population_density": 1788
  },
  "Canterbury": {
    "aqi": 2,
    "coordinates": [1.07992, 51.27904],
    "population_density": 533
  },
  "Carlisle": {
    "aqi": 39,
    "coordinates": [-2.945307, 54.894834],
    "population_density": 104
  },
  "Carrington": {
    "aqi": 1,
    "coordinates": [-2.395067, 53.447759],
    "population_density": 1788
  },
  "Catford": {
    "aqi": 27,
    "coordinates": [-0.02043, 51.44491],
    "population_density": 1788
  },
  "Charlton Mackrell": {
    "aqi": 3,
    "coordinates": [-2.68345, 51.05625],
    "population_density": 1788
  },
  "Chatham": {
    "aqi": 25,
    "coordinates": [0.54797, 51.374264],
    "population_density": 1788
  },
  "Cheadle": {
    "aqi": 1,
    "coordinates": [-2.22628, 53.391717],
    "population_density": 1788
  },
  "Chelsea": {
    "aqi": 8,
    "coordinates": [-0.147391757027028, 51.4932327916861],
    "population_density": 12884
  },
  "Chichester": {
    "aqi": 4,
    "coordinates": [-0.78003, 50.83673],
    "population_density": 154
  },
  "Chilbolton": {
    "aqi": 37,
    "coordinates": [-1.438228, 51.149617],
    "population_density": 1788
  },
  "Chippenham": {
    "aqi": 35,
    "coordinates": [-2.12472, 51.46],
    "population_density": 1788
  },
  "Chorley": {
    "aqi": 4,
    "coordinates": [-2.635968, 53.650043],
    "population_density": 576
  },
  "Christchurch": {
    "aqi": 57,
    "coordinates": [-1.78129, 50.73583],
    "population_density": 2453
  },
  "City of Westminster": {
    "aqi": 12,
    "coordinates": [-0.12162720332856, 51.5119769825798],
    "population_density": 11883
  },
  "Colchester": {
    "aqi": 41,
    "coordinates": [0.84396346, 51.87541985],
    "population_density": 585
  },
  "Colnbrook": {
    "aqi": 70,
    "coordinates": [-0.52142, 51.48384],
    "population_density": 1788
  },
  "Coventry": {
    "aqi": 23,
    "coordinates": [-1.560228, 52.411563],
    "population_density": 3718
  },
  "Cranbrook": {
    "aqi": 33,
    "coordinates": [0.53567, 51.09662],
    "population_density": 1788
  },
  "Crondall": {
    "aqi": 50,
    "coordinates": [-0.860451, 51.234964],
    "population_density": 1788
  },
  "Croydon": {
    "aqi": 53,
    "coordinates": [-0.1364178614733, 51.3835652277943],
    "population_density": 4455
  },
  "Datchet": {
    "aqi": 4,
    "coordinates": [-0.57893, 51.4839],
    "population_density": 1788
  },
  "Devizes": {
    "aqi": 84,
    "coordinates": [-1.990416, 51.352198],
    "population_density": 1788
  },
  "Ealing": {
    "aqi": 58,
    "coordinates": [-0.30204, 51.51216],
    "population_density": 6157
  },
  "Earley": {
    "aqi": 41,
    "coordinates": [-0.92384, 51.44085],
    "population_density": 1788
  },
  "East Ham": {
    "aqi": 69,
    "coordinates": [0.027725, 51.534667],
    "population_density": 235
  },
  "East Molesey": {
    "aqi": 8,
    "coordinates": [-0.343333, 51.401944],
    "population_density": 1788
  },
  "Eastbourne": {
    "aqi": 6,
    "coordinates": [0.271643, 50.805813],
    "population_density": 2336
  },
  "Eccles": {
    "aqi": 16,
    "coordinates": [-2.334139, 53.48481],
    "population_density": 1788
  },
  "Erith": {
    "aqi": 52,
    "coordinates": [0.184877126994369, 51.4659832746662],
    "population_density": 1788
  },
  "Eton Wick": {
    "aqi": 57,
    "coordinates": [-0.63437, 51.49722],
    "population_density": 1788
  },
  "Exeter": {
    "aqi": 4,
    "coordinates": [-3.532465, 50.725083],
    "population_density": 2773
  },
  "Farnham": {
    "aqi": 41,
    "coordinates": [-0.80054, 51.21444],
    "population_density": 1788
  },
  "Feltham": {
    "aqi": 29,
    "coordinates": [-0.408733, 51.447388],
    "population_density": 1788
  },
  "Fulford": {
    "aqi": 1,
    "coordinates": [-1.073861, 53.937787],
    "population_density": 1788
  },
  "Gateshead": {
    "aqi": 27,
    "coordinates": [-1.649945, 54.951529],
    "population_density": 1423
  },
  "Girton": {
    "aqi": 68,
    "coordinates": [0.087222, 52.225556],
    "population_density": 1788
  },
  "Glazebury": {
    "aqi": 1,
    "coordinates": [-2.472056, 53.46008],
    "population_density": 1788
  },
  "Godalming": {
    "aqi": 1,
    "coordinates": [-0.61489, 51.1858],
    "population_density": 1788
  },
  "Gorleston-on-Sea": {
    "aqi": 56,
    "coordinates": [1.73069, 52.57301],
    "population_density": 1788
  },
  "Gravesend": {
    "aqi": 6,
    "coordinates": [0.3375, 51.424444],
    "population_density": 1788
  },
  "Grays": {
    "aqi": 61,
    "coordinates": [0.317969, 51.47707],
    "population_density": 1788
  },
  "Great Bookham": {
    "aqi": 32,
    "coordinates": [-0.363355, 51.282968],
    "population_density": 1788
  },
  "Great Waldingfield": {
    "aqi": 70,
    "coordinates": [0.77436, 52.05545],
    "population_density": 1788
  },
  "Hackney": {
    "aqi": 70,
    "coordinates": [-0.05, 51.55],
    "population_density": 14681
  },
  "Halesworth": {
    "aqi": 7,
    "coordinates": [1.463497, 52.2944],
    "population_density": 1788
  },
  "Hammersmith": {
    "aqi": 61,
    "coordinates": [-0.254668101620372, 51.5038527919816],
    "population_density": 11308
  },
  "Harlington": {
    "aqi": 53,
    "coordinates": [-0.42376, 51.48113],
    "population_density": 1788
  },
  "Harmondsworth": {
    "aqi": 17,
    "coordinates": [-0.479451, 51.487534],
    "population_density": 1788
  },
  "Hartlepool": {
    "aqi": 0,
    "coordinates": [-1.21028, 54.68554],
    "population_density": 447
  },
  "Hastings": {
    "aqi": 1,
    "coordinates": [0.52221, 50.850797],
    "population_density": 3124
  },
  "Hatfield": {
    "aqi": 70,
    "coordinates": [-0.214824, 51.767563],
    "population_density": 948
  },
  "Haydock": {
    "aqi": 45,
    "coordinates": [-2.68166, 53.46723],
    "population_density": 1788
  },
  "Hayes": {
    "aqi": 57,
    "coordinates": [-0.412333, 51.498167],
    "population_density": 1788
  },
  "Helsby": {
    "aqi": 14,
    "coordinates": [-2.773889, 53.273269],
    "population_density": 1788
  },
  "Henley-on-Thames": {
    "aqi": 1,
    "coordinates": [-0.903958, 51.536552],
    "population_density": 1788
  },
  "Hertford": {
    "aqi": 55,
    "coordinates": [-0.076225, 51.795569],
    "population_density": 311
  },
  "Hitchin": {
    "aqi": 15,
    "coordinates": [-0.274431, 51.940988],
    "population_density": 1788
  },
  "Hockley": {
    "aqi": 20,
    "coordinates": [-1.91667, 52.5],
    "population_density": 1788
  },
  "Horley": {
    "aqi": 3,
    "coordinates": [-0.15919, 51.17423],
    "population_density": 1788
  },
  "Horsham": {
    "aqi": 4,
    "coordinates": [-0.324817641639, 51.062592741468],
    "population_density": 268
  },
  "Hounslow": {
    "aqi": 57,
    "coordinates": [-0.411895, 51.482982],
    "population_density": 4837
  },
  "Hull": {
    "aqi": 36,
    "coordinates": [-0.305749, 53.758971],
    "population_density": 3648
  },
  "Huntingdon": {
    "aqi": 54,
    "coordinates": [-0.18651, 52.33049],
    "population_density": 196
  },
  "Ilford": {
    "aqi": 59,
    "coordinates": [0.0829074748964946, 51.5694843315237],
    "population_density": 1788
  },
  "Immingham": {
    "aqi": 2,
    "coordinates": [-0.22219, 53.61239],
    "population_density": 1788
  },
  "Ipswich": {
    "aqi": 6,
    "coordinates": [1.138969, 52.064672],
    "population_density": 3480
  },
  "Isfield": {
    "aqi": 3,
    "coordinates": [0.060765, 50.938397],
    "population_density": 1788
  },
  "Jarrow": {
    "aqi": 3,
    "coordinates": [-1.469444, 54.966667],
    "population_density": 1788
  },
  "Kensington": {
    "aqi": 59,
    "coordinates": [-0.192964, 51.490536],
    "population_density": 12884
  },
  "Kibworth Harcourt": {
    "aqi": 4,
    "coordinates": [-0.9966868140928383, 52.54304873310139],
    "population_density": 1788
  },
  "Kingston upon Thames": {
    "aqi": 4,
    "coordinates": [-0.257029893767993, 51.4355006647773],
    "population_density": 4709
  },
  "Lancaster": {
    "aqi": 3,
    "coordinates": [-2.800556, 54.050833],
    "population_density": 250
  },
  "Leeds": {
    "aqi": 23,
    "coordinates": [-1.546472, 53.80378],
    "population_density": 1430
  },
  "Leicester": {
    "aqi": 25,
    "coordinates": [-1.124228, 52.638677],
    "population_density": 366
  },
  "Leominster": {
    "aqi": 25,
    "coordinates": [-2.736665, 52.22174],
    "population_density": 1788
  },
  "Lewes": {
    "aqi": 2,
    "coordinates": [0.0103548583119496, 50.8743641680228],
    "population_density": 352
  },
  "Litlington": {
    "aqi": 1,
    "coordinates": [0.180837727330647, 50.7935424082046],
    "population_density": 1788
  },
  "Lodsworth": {
    "aqi": 8,
    "coordinates": [-0.684578, 51.001188],
    "population_density": 1788
  },
  "London": {
    "aqi": 56,
    "coordinates": [0.040725, 51.456357],
    "population_density": 2998
  },
  "Lower Stoke": {
    "aqi": 21,
    "coordinates": [0.634889, 51.45617],
    "population_density": 1788
  },
  "Lowfield Heath": {
    "aqi": 5,
    "coordinates": [-0.194181, 51.142082],
    "population_density": 1788
  },
  "Luton": {
    "aqi": 41,
    "coordinates": [-0.422144, 51.880154],
    "population_density": 4939
  },
  "Maidenhead": {
    "aqi": 3,
    "coordinates": [-0.724024666515, 51.520894546995],
    "population_density": 768
  },
  "Maidstone": {
    "aqi": 61,
    "coordinates": [0.582222, 51.308056],
    "population_density": 432
  },
  "Manchester": {
    "aqi": 2,
    "coordinates": [-2.239001, 53.472077],
    "population_density": 4735
  },
  "Marlborough": {
    "aqi": 26,
    "coordinates": [-1.72949, 51.42027],
    "population_density": 1788
  },
  "Marston Green": {
    "aqi": 23,
    "coordinates": [-1.743912, 52.455719],
    "population_density": 1788
  },
  "Middlesbrough": {
    "aqi": 23,
    "coordinates": [-1.220874, 54.569297],
    "population_density": 2608
  },
  "Morden": {
    "aqi": 7,
    "coordinates": [-0.19589212, 51.40162],
    "population_density": 1788
  },
  "Mottram in Longdendale": {
    "aqi": 17,
    "coordinates": [-2.005694, 53.458994],
    "population_density": 1788
  },
  "Nantwich": {
    "aqi": 3,
    "coordinates": [-2.516248, 53.066432],
    "population_density": 1788
  },
  "New Basford": {
    "aqi": 3,
    "coordinates": [-1.153333, 52.966667],
    "population_density": 1788
  },
  "Newburn": {
    "aqi": 1,
    "coordinates": [-1.706671, 54.999863],
    "population_density": 1788
  },
  "Newcastle upon Tyne": {
    "aqi": 12,
    "coordinates": [-1.610528, 54.97825],
    "population_density": 2646
  },
  "Newington": {
    "aqi": 3,
    "coordinates": [0.666901, 51.350268],
    "population_density": 1788
  },
  "Newquay": {
    "aqi": 13,
    "coordinates": [-5.07319, 50.41557],
    "population_density": 1788
  },
  "Newton-le-Willows": {
    "aqi": 1,
    "coordinates": [-2.619444, 53.4575],
    "population_density": 1788
  },
  "North Ferriby": {
    "aqi": 61,
    "coordinates": [-0.518944, 53.67625],
    "population_density": 1788
  },
  "Northampton": {
    "aqi": 55,
    "coordinates": [-0.88333, 52.25],
    "population_density": 146
  },
  "Northwood": {
    "aqi": 68,
    "coordinates": [-1.31192, 50.74102],
    "population_density": 1788
  },
  "Norton Canes": {
    "aqi": 0,
    "coordinates": [-1.96262, 52.67142],
    "population_density": 1788
  },
  "Norwich": {
    "aqi": 53,
    "coordinates": [1.296667, 52.629444],
    "population_density": 3617
  },
  "Nottingham": {
    "aqi": 16,
    "coordinates": [-1.146447, 52.95473],
    "population_density": 4437
  },
  "Orpington": {
    "aqi": 10,
    "coordinates": [0.09946532, 51.37982436],
    "population_density": 1788
  },
  "Oxford": {
    "aqi": 52,
    "coordinates": [-1.250939, 51.752527],
    "population_density": 154
  },
  "Plymouth": {
    "aqi": 26,
    "coordinates": [-4.142361, 50.37167],
    "population_density": 3296
  },
  "Portsmouth": {
    "aqi": 6,
    "coordinates": [-1.06994447818715, 50.8282053073682],
    "population_density": 5326
  },
  "Prescot": {
    "aqi": 1,
    "coordinates": [-2.75305, 53.448333],
    "population_density": 1788
  },
  "Preston": {
    "aqi": 12,
    "coordinates": [-2.680353, 53.76559],
    "population_density": 997
  },
  "Prestwich": {
    "aqi": 33,
    "coordinates": [-2.277565, 53.524915],
    "population_density": 1788
  },
  "Pulborough": {
    "aqi": 10,
    "coordinates": [-0.551447, 50.970249],
    "population_density": 1788
  },
  "Purfleet": {
    "aqi": 12,
    "coordinates": [0.255133, 51.478697],
    "population_density": 1788
  },
  "Radcliffe": {
    "aqi": 9,
    "coordinates": [-2.330732, 53.563481],
    "population_density": 1788
  },
  "Radcliffe on Trent": {
    "aqi": 2,
    "coordinates": [-1.063889, 52.9375],
    "population_density": 1788
  },
  "Rainham": {
    "aqi": 38,
    "coordinates": [0.205460705694044, 51.520787459334],
    "population_density": 1788
  },
  "Ramsgate": {
    "aqi": 4,
    "coordinates": [1.419167, 51.336389],
    "population_density": 1788
  },
  "Reading": {
    "aqi": 0,
    "coordinates": [-0.977094, 51.464355],
    "population_density": 4040
  },
  "Redcar": {
    "aqi": 37,
    "coordinates": [-1.09784, 54.60317],
    "population_density": 558
  },
  "Romford": {
    "aqi": 59,
    "coordinates": [0.179079, 51.572976],
    "population_density": 1788
  },
  "Royal Leamington Spa": {
    "aqi": 6,
    "coordinates": [-1.533119, 52.28881],
    "population_density": 1788
  },
  "Royal Wootton Bassett": {
    "aqi": 4,
    "coordinates": [-1.9045, 51.5419],
    "population_density": 1788
  },
  "Ruislip": {
    "aqi": 33,
    "coordinates": [-0.40278, 51.55226],
    "population_density": 1788
  },
  "Salford": {
    "aqi": 3,
    "coordinates": [-2.31288, 53.503541],
    "population_density": 2617
  },
  "Salisbury": {
    "aqi": 37,
    "coordinates": [-1.793793, 51.065247],
    "population_density": 1788
  },
  "Saltash": {
    "aqi": 25,
    "coordinates": [-4.227678, 50.411463],
    "population_density": 1788
  },
  "Sandy": {
    "aqi": 41,
    "coordinates": [-0.300306, 52.132417],
    "population_density": 1788
  },
  "Scunthorpe": {
    "aqi": 27,
    "coordinates": [-0.636811, 53.58634],
    "population_density": 1788
  },
  "Sevenoaks": {
    "aqi": 2,
    "coordinates": [0.195766572888, 51.293759175],
    "population_density": 326
  },
  "Shaw": {
    "aqi": 29,
    "coordinates": [-2.09385, 53.5794],
    "population_density": 1788
  },
  "Sheffield": {
    "aqi": 21,
    "coordinates": [-1.478096, 53.378622],
    "population_density": 1583
  },
  "Shenley": {
    "aqi": 69,
    "coordinates": [-0.282015, 51.702677],
    "population_density": 1788
  },
  "Sipson": {
    "aqi": 5,
    "coordinates": [-0.455695, 51.484384],
    "population_density": 1788
  },
  "Sittingbourne": {
    "aqi": 9,
    "coordinates": [0.729189, 51.347198],
    "population_density": 1788
  },
  "Slough": {
    "aqi": 53,
    "coordinates": [-0.502656, 51.487764],
    "population_density": 4582
  },
  "South Shields": {
    "aqi": 1,
    "coordinates": [-1.44, 54.973611],
    "population_density": 1788
  },
  "Southampton": {
    "aqi": 5,
    "coordinates": [-1.395778, 50.90814],
    "population_density": 5065
  },
  "Southend-on-Sea": {
    "aqi": 18,
    "coordinates": [0.678408, 51.544206],
    "population_density": 4370
  },
  "Southsea": {
    "aqi": 45,
    "coordinates": [-1.08593, 50.79205],
    "population_density": 1788
  },
  "Spalding": {
    "aqi": 14,
    "coordinates": [-0.175053, 52.785625],
    "population_density": 1788
  },
  "Speke": {
    "aqi": 4,
    "coordinates": [-2.844333, 53.34633],
    "population_density": 1788
  },
  "Staines-upon-Thames": {
    "aqi": 63,
    "coordinates": [-0.479444, 51.459444],
    "population_density": 1788
  },
  "Stanford-le-Hope": {
    "aqi": 57,
    "coordinates": [0.439548, 51.518167],
    "population_density": 1788
  },
  "Stanmore": {
    "aqi": 5,
    "coordinates": [-0.298775, 51.617327],
    "population_density": 1788
  },
  "Stevenage": {
    "aqi": 61,
    "coordinates": [-0.205111, 51.900528],
    "population_density": 3379
  },
  "Stockton": {
    "aqi": 58,
    "coordinates": [-1.36055, 52.27181],
    "population_density": 962
  },
  "Stockton Heath": {
    "aqi": 3,
    "coordinates": [-2.5975, 53.373611],
    "population_density": 1788
  },
  "Stockton-on-Tees": {
    "aqi": 17,
    "coordinates": [-1.3159, 54.565819],
    "population_density": 962
  },
  "Stoke Ferry": {
    "aqi": 21,
    "coordinates": [0.511944, 52.57194],
    "population_density": 1788
  },
  "Stoke-on-Trent": {
    "aqi": 13,
    "coordinates": [-2.111898, 52.980436],
    "population_density": 2738
  },
  "Stokenchurch": {
    "aqi": 2,
    "coordinates": [-0.894158, 51.652503],
    "population_density": 1788
  },
  "Stretford": {
    "aqi": 29,
    "coordinates": [-2.320941, 53.448876],
    "population_density": 1788
  },
  "Sunbury-on-Thames": {
    "aqi": 60,
    "coordinates": [-0.41817, 51.40424],
    "population_density": 1788
  },
  "Sunderland": {
    "aqi": 15,
    "coordinates": [-1.406726, 54.883642],
    "population_density": 2018
  },
  "Surbiton": {
    "aqi": 6,
    "coordinates": [-0.281259, 51.379312],
    "population_density": 1788
  },
  "Sutton Bridge": {
    "aqi": 33,
    "coordinates": [0.181633, 52.772975],
    "population_density": 4665
  },
  "Swaffham": {
    "aqi": 14,
    "coordinates": [0.393611, 52.766667],
    "population_density": 1788
  },
  "Swanscombe": {
    "aqi": 8,
    "coordinates": [0.328889, 51.445278],
    "population_density": 1788
  },
  "Teddington": {
    "aqi": 58,
    "coordinates": [-0.345608290872898, 51.4252560360937],
    "population_density": 1788
  },
  "Telford": {
    "aqi": 2,
    "coordinates": [-2.44926, 52.67659],
    "population_density": 612
  },
  "Tilbury": {
    "aqi": 10,
    "coordinates": [0.357953197319231, 51.4617571252861],
    "population_density": 1788
  },
  "Twickenham": {
    "aqi": 3,
    "coordinates": [-0.341218138106469, 51.4531422511004],
    "population_density": 1788
  },
  "Wallington": {
    "aqi": 6,
    "coordinates": [-0.149723946604927, 51.3586596124998],
    "population_density": 1788
  },
  "Wallsend": {
    "aqi": 13,
    "coordinates": [-1.53397, 54.99111],
    "population_density": 1788
  },
  "Warrington": {
    "aqi": 6,
    "coordinates": [-2.615358, 53.38928],
    "population_density": 1160
  },
  "Wateringbury": {
    "aqi": 3,
    "coordinates": [0.422778, 51.255556],
    "population_density": 1788
  },
  "Watford": {
    "aqi": 68,
    "coordinates": [-0.402863, 51.6592],
    "population_density": 4515
  },
  "Watlington": {
    "aqi": 2,
    "coordinates": [-1.004394, 51.645112],
    "population_density": 1788
  },
  "West Bridgford": {
    "aqi": 5,
    "coordinates": [-1.134722, 52.9375],
    "population_density": 1788
  },
  "West Bromwich": {
    "aqi": 1,
    "coordinates": [-1.9945, 52.51868],
    "population_density": 1788
  },
  "West Drayton": {
    "aqi": 47,
    "coordinates": [-0.460826, 51.496309],
    "population_density": 1788
  },
  "West End of London": {
    "aqi": 83,
    "coordinates": [-0.146739, 51.510927],
    "population_density": 1788
  },
  "Westcliff-on-Sea": {
    "aqi": 8,
    "coordinates": [0.69179, 51.54424],
    "population_density": 1788
  },
  "Weybridge": {
    "aqi": 4,
    "coordinates": [-0.4575, 51.373333],
    "population_density": 1788
  },
  "Widnes": {
    "aqi": 3,
    "coordinates": [-2.722289, 53.371193],
    "population_density": 1788
  },
  "Wigan": {
    "aqi": 15,
    "coordinates": [-2.638056, 53.549444],
    "population_density": 1733
  },
  "Willenhall": {
    "aqi": 0,
    "coordinates": [-2.030523, 52.605621],
    "population_density": 1788
  },
  "Winchester": {
    "aqi": 6,
    "coordinates": [-1.306944, 51.060556],
    "population_density": 188
  },
  "Woodbridge": {
    "aqi": 9,
    "coordinates": [1.321286, 52.094862],
    "population_density": 1788
  },
  "Worsley": {
    "aqi": 22,
    "coordinates": [-2.381239, 53.503784],
    "population_density": 1788
  },
  "Worthing": {
    "aqi": 8,
    "coordinates": [-0.379956200169679, 50.8330047430174],
    "population_density": 3383
  },
  "Wretham": {
    "aqi": 25,
    "coordinates": [0.814722, 52.462778],
    "population_density": 1788
  },
  "York": {
    "aqi": 36,
    "coordinates": [-1.085679, 53.963805],
    "population_density": 141
  }
}
